chr	pos	ref	alt	sample
chr2	47698103	G	A	pred
chr8	90967509	A	T	pred
chr17	41276113	T	C	pred
7	140453155	CA	TCC	s1
chr2	29443631	G	T	s1
chr2	29443642	C	G	s1
chr2	29443695	G	C	s1
chr1	11169361	C	G	s1
chr1	11174420	C	T	s1
1	11182179	G	T	s1
1	11184573	G	T	s1
1	11187857	C	T	s1
1	11217299	A	G	s1
1	16464489	C	G	s1
1	16464489	C	T	s1
1	36933434	G	A	s1
1	36933444	T	C	s1
1	43814978	A	T	s1
1	43814979	G	A	s1
1	43815009	G	T	s1
1	65312347	C	A	s1
1	65312382	G	A	s1
1	115256528	T	A	s1
1	115256528	T	G	s1
1	115256528	TT	CA	s1
1	115256528	TT	CC	s1
1	115256529	T	A	s1
1	115256529	T	C	s1
1	115256529	T	G	s1
1	115256529	TG	CT	s1
1	115256530	G	A	s1
1	115256530	G	C	s1
3	41266104	G	A	s1
3	41266104	G	T	s1
1	115256530	G	T	s1
1	115258730	C	T	s1
1	115258744	C	A	s1
1	115258744	C	G	s1
1	115258744	C	T	s1
1	115258745	C	A	s1
1	115258745	C	G	s1
1	115258745	C	T	s1
1	115258747	C	A	s1
1	115258747	C	G	s1
1	115258747	C	T	s1
1	115258748	C	A	s1
1	115258748	C	G	s1
1	115258748	C	T	s1
1	162724415	C	G	s1
1	162729630	T	G	s1
1	162729671	G	T	s1
1	162741822	G	A	s1
1	162745497	A	T	s1
1	162748390	T	A	s1
1	162748407	G	T	s1
2	25457242	C	A	s1
2	25457242	C	G	s1
2	25457242	C	T	s1
2	25457243	G	A	s1
2	25457243	G	C	s1
2	25457243	G	T	s1
2	29432655	T	G	s1
2	29432664	C	T	s1
2	29432682	C	G	s1
2	29436858	G	C	s1
2	29436859	A	C	s1
2	29436860	A	C	s1
2	29436920	C	T	s2
2	29443600	G	T	s2
2	29443613	C	T	s2
2	29443695	G	T	s2
2	29443696	A	C	s2
2	29443697	A	C	s2
2	29443697	A	T	s2
2	29445213	A	T	s2
2	29445270	A	C	s2
2	29445273	G	A	s2
2	29445450	C	G	s2
2	29446296	C	T	s2
2	198266832	T	A	s2
2	198266832	T	G	s2
2	198266833	T	A	s2
2	198266833	T	C	s2
2	198266833	T	G	s2
2	198266834	T	A	s2
2	198266834	T	C	s2
2	198266834	T	G	s2
2	198267359	C	A	s2
2	198267359	C	G	s2
2	198267360	T	C	s2
2	198267360	T	G	s2
2	198267361	T	C	s2
2	209113112	C	A	s2
2	209113112	C	G	s2
2	209113112	C	T	s2
2	209113113	G	A	s2
2	209113113	G	C	s2
2	209113113	G	T	s2
2	212295699	C	T	s2
2	212537975	G	A	s2
2	212537981	C	T	s2
2	212566827	C	T	s2
2	212570064	G	A	s2
2	212578308	C	T	s2
3	10183772	C	T	s2
3	10183785	T	C	s2
3	10183797	T	A	s2
3	10191480	T	A	s2
3	10191488	C	T	s2
3	10191506	C	T	s2
3	12641195	C	G	s2
3	12645700	A	G	s2
3	37067240	T	A	s2
3	38182641	T	C	s2
3	41266040	G	A	s2
3	41266064	G	A	s2
3	41266067	GTTAGTCACTGGCAGCAACAGTCTTACCTGGACTCTGGAATCCATTCTGGT	-	s2
3	41266068	T	C	s2
3	41266076	TGGCAGCAACAGTCTTACCTGGAC	-	s2
3	41266097	G	A	s2
3	41266097	G	C	s2
3	41266097	G	T	s2
3	41266098	A	C	s2
3	41266098	A	G	s2
3	41266098	A	T	s2
3	41266101	C	A	s2
3	41266101	C	G	s2
3	41266103	G	A	s2
3	41266103	G	C	s2
3	41266112	T	C	s2
3	41266112	T	G	s2
3	41266113	C	A	s2
3	41266113	C	G	s2
3	41266113	C	T	s2
3	41266121	A	C	s2
3	41266121	A	G	s2
3	41266121	A	T	s2
3	41266122	C	G	s2
3	41266122	C	T	s2
3	41266136	T	C	s2
3	41266136	T	G	s2
3	41266137	C	A	s2
3	41266137	C	G	s2
3	41266137	C	T	s2
3	128200113	G	A	s2
3	128200744	G	A	s2
3	178916876	G	A	s2
3	178921553	T	A	s2
3	178921553	T	G	s2
3	178927980	T	C	s2
3	178936074	C	G	s2
3	178936082	G	A	s2
3	178936082	G	C	s2
3	178936091	G	A	s2
3	178936091	G	C	s2
3	178936092	A	C	s2
3	178936092	A	G	s2
3	178936092	A	T	s2
3	178936093	G	C	s2
3	178936093	G	T	s2
3	178936094	C	A	s2
3	178936094	C	G	s2
3	178936095	A	C	s2
3	178936095	A	G	s2
3	178936095	A	T	s2
3	178936103	G	A	s2
3	178938860	A	C	s2
3	178952007	A	G	s2
3	178952074	G	A	s2
3	178952074	G	T	s2
3	178952084	C	T	s2
3	178952085	A	G	s2
3	178952085	A	T	s2
3	178952090	G	A	s2
3	178952090	G	C	s2
4	1803564	C	T	s2
4	1803568	C	G	s2
4	1806089	G	T	s2
4	1806092	A	T	s2
4	1806099	A	G	s2
4	1807488	G	A	s2
4	1807889	A	C	s2
4	1808331	G	T	s2
4	55141036	T	A	s2
4	55141083	C	T	s2
4	55144144	T	C	s2
4	55144148	C	A	s2
4	55144148	C	G	s2
4	55152089	AGAGAC	-	s2
4	55152090	G	A	s2
4	55152092	G	T	s2
4	55152092	GA	AT	s2
4	55152092	GACATCATG	-	s2
4	55152092	GACATCATGCAT	-	s2
4	55152093	A	T	s2
4	55152095	ATCATGCATGAT	-	s2
4	55152101	C	T	s2
4	55152104	G	T	s2
4	55152126	G	A	s2
4	55561764	G	A	s2
4	55592144	G	A	s2
4	55592186	T	C	s2
4	55593584	A	C	s2
4	55593584	A	T	s2
4	55593591	T	A	s2
4	55593603	G	A	s2
4	55593603	G	C	s2
4	55593603	T	A	s2
4	55593603	T	C	s2
4	55593608	G	C	s2
4	55593608	G	T	s2
4	55593609	G	A	s2
4	55593609	GTT	-	s2
4	55593610	T	A	s2
4	55593610	T	C	s2
4	55593610	T	G	s2
4	55593612	GTT	-	s2
4	55593613	T	A	s2
4	55593613	T	C	s2
4	55593613	T	G	s2
4	55593630	A	G	s2
4	55593640	T	G	s2
4	55593661	T	C	s2
4	55593664	CTTATGATC	-	s2
4	55594221	A	G	s2
4	55594258	T	A	s2
4	55594258	T	C	s2
4	55594261	A	G	s2
4	55594262	T	A	s2
4	55594262	T	G	s2
4	55595519	C	T	s2
4	55595599	C	T	s2
4	55599320	G	C	s2
4	55599320	G	T	s2
4	55599320	GA	AT	s2
4	55599321	A	T	s2
4	55599332	G	C	s2
4	55599332	G	T	s2
4	55599333	A	T	s2
4	55599334	T	A	s2
4	55599339	A	T	s2
4	55599340	T	A	s2
4	55599340	T	G	s2
4	55599341	T	G	s2
4	55599348	T	C	s2
4	55602664	G	C	s2
4	55602694	G	A	s2
5	35873597	A	T	s2
5	67589138	G	A	s2
5	67589138	G	C	s2
5	67589552	GAA	-	s2
5	67589618	C	T	s2
5	67591085	G	T	s2
5	67591085	GACAAACGTATGAACAGC	-	s2
5	67591097	A	G	s2
5	67591099	C	A	s2
5	67591099	C	G	s2
5	67591133	ACG	-	s2
5	67591249	TGG	-	s2
5	112173917	C	T	s2
5	112174631	C	T	s2
5	112175207	G	T	s2
5	112175219	AAGATTGGAAC	-	s2
5	112175219	AAGATTGGAACTAGGTCAGC	-	s2
5	112175303	C	T	s2
5	112175390	C	T	s2
5	112175423	C	T	s2
5	112175426	G	T	s2
5	112175576	C	T	s2
5	112175639	C	T	s2
5	112175687	GGACC	-	s2
5	112175960	ATTGATTC	-	s2
5	149433644	A	C	s2
5	149433644	A	T	s2
5	149433645	T	A	s2
5	149433645	T	C	s2
5	149433646	A	G	s2
5	149441328	A	C	s2
5	149453044	A	G	s3
5	149453044	A	T	s3
5	170837546	-	CATG	s3
5	170837546	-	CCTG	s3
5	170837546	-	TCAG	s3
5	170837546	-	TCTG	s3
5	176522416	C	A	s3
5	176522416	C	G	s3
5	176522552	T	A	s3
6	117638347	C	T	s3
6	152332832	G	C	s3
6	152415537	T	C	s3
6	152419914	T	A	s3
6	152419917	C	A	s3
6	152419920	T	G	s3
6	152419922	T	A	s3
6	152419923	A	C	s3
6	152419923	A	G	s3
6	152419926	A	G	s3
7	6426892	C	T	s3
7	55211080	G	A	s3
7	55221743	A	C	s3
7	55221822	C	T	s3
7	55228007	A	G	s3
7	55231430	C	T	s3
7	55233043	G	T	s3
7	55241620	G	A	s3
7	55241707	G	A	s3
7	55241707	G	T	s3
7	55241708	G	A	s3
7	55241708	G	C	s3
7	55242423	G	A	s3
7	55242428	C	T	s3
7	55242430	G	A	s3
7	55242433	G	A	s3
7	55242455	T	C	s3
7	55242464	A	G	s3
7	55242466	G	A	s3
7	55242470	T	C	s3
7	55242478	G	C	s3
7	55242485	C	A	s3
7	55242487	C	T	s3
7	55242511	G	A	s3
7	55242511	G	T	s3
7	55249005	G	T	s3
7	55249020	A	G	s3
7	55249071	C	T	s3
7	55249130	G	A	s3
7	55249131	G	A	s3
7	55259469	G	A	s3
7	55259514	C	A	s3
7	55259514	CT	AG	s3
7	55259515	T	A	s3
7	55259515	T	G	s3
7	140453136	A	G	s3
7	55259515	TG	GT	s3
7	55259524	T	A	s3
7	55259524	T	C	s3
7	55259524	T	G	s3
7	116411923	C	T	s3
7	116411990	C	T	s3
7	116417457	G	A	s3
7	116417463	C	T	s3
7	116417464	A	G	s3
7	116423413	T	C	s3
7	116423414	A	G	s3
7	116423428	T	G	s3
7	116423474	T	C	s3
7	116423475	G	A	s3
7	116423475	G	C	s3
7	116423475	G	T	s3
7	128849189	G	C	s3
7	140453121	C	T	s3
7	140453121	CT	AA	s3
7	140453132	T	A	s3
7	140453132	T	G	s3
7	140453132	TTT	-	s3
7	140453133	T	C	s3
7	140453134	T	C	s3
7	140453135	CA	AT	s3
7	140453135	CA	TT	s3
7	140453136	A	C	s3
7	140453136	A	T	s3
7	140453136	AC	CT	s3
7	140453136	AC	TT	s3
7	140453137	C	A	s3
7	140453137	C	G	s3
7	140453137	C	T	s3
7	140453139	G	A	s3
7	140453145	A	C	s3
7	140453145	A	T	s3
7	140453145	AG	GA	s3
7	140453146	G	C	s3
7	140453149	C	G	s3
7	140453150	A	C	s3
7	140453150	A	T	s3
7	140453151	A	G	s3
7	140453152	A	G	s3
7	140453153	A	C	s3
7	140453153	A	T	s3
7	140453154	T	A	s3
7	140453154	T	C	s3
7	140453154	T	G	s3
7	140453155	C	G	s3
7	140453155	C	T	s3
7	140453155	CA	TC	s3
7	140453159	T	C	s3
7	140453161	T	C	s3
7	140453174	G	C	s3
7	140453174	G	T	s3
7	140453175	T	G	s3
7	140453179	C	T	s3
7	140453193	T	C	s3
7	140481393	T	C	s3
7	140481397	C	A	s3
7	140481402	C	A	s3
7	140481402	C	G	s3
7	140481402	C	T	s3
7	140481402	CC	AA	s3
7	140481402	CC	GA	s3
7	140481403	C	G	s3
7	140481403	C	T	s3
7	140481411	C	A	s3
7	140481411	C	G	s3
7	140481411	C	T	s3
7	140481412	C	T	s3
7	140481417	C	A	s3
7	140481417	C	T	s3
7	140481418	C	T	s3
7	140481478	G	A	s3
7	148506467	G	C	s3
7	148508727	T	A	s3
7	148508727	T	G	s3
7	148508728	A	G	s3
7	148508728	A	T	s3
8	38282209	G	T	s3
8	38285938	G	A	s3
8	128750632	C	T	s3
8	128750639	C	T	s3
8	128750681	C	T	s3
8	128750693	C	T	s3
8	128750765	A	C	s3
8	128751241	C	G	s3
9	5073770	G	T	s3
9	5078360	A	G	s3
9	5078361	G	C	s3
9	5078362	A	C	s3
9	5078362	A	T	s3
9	21971017	G	A	s3
9	21971028	C	T	s3
9	21971029	C	T	s3
9	21971036	C	A	s3
9	21971096	C	A	s3
9	21971108	C	A	s3
9	21971111	G	A	s3
9	21971120	G	A	s3
9	21971153	C	A	s3
9	21971177	C	A	s3
9	21971186	G	A	s3
9	80409488	T	A	s3
9	80409488	T	C	s3
9	80409488	T	G	s3
9	80409488	TG	AA	s3
9	133738306	G	A	s3
9	133738307	A	T	s3
9	133738330	A	G	s3
9	133738342	C	G	s3
9	133738349	G	A	s3
9	133738356	G	C	s3
9	133738356	G	T	s3
9	133738357	T	C	s3
9	133738358	A	T	s3
9	133738363	G	A	s3
9	133738364	A	T	s3
9	133747540	A	G	s3
9	133747588	G	C	s3
9	133748282	A	G	s3
9	133748283	C	T	s3
9	133748288	T	A	s3
9	133748288	T	G	s3
9	133748289	T	G	s3
9	133748290	C	A	s3
9	133748290	C	G	s3
9	133748391	T	C	s3
9	133748403	A	G	s3
9	133748414	T	A	s3
9	133748414	T	C	s3
9	133748414	T	G	s3
9	133748415	T	G	s3
9	133750356	A	G	s3
10	43609078	TTCCCTGAGGAGGAGAAGTGCTTCTGC	-	s3
10	43609940	A	G	s3
10	43609942	GAGCTG	-	s3
10	43609948	T	C	s3
10	43609949	G	A	s3
10	43609950	C	G	s3
10	43613840	G	C	s3
10	43615568	GC	TT	s3
10	43615613	GATGTTTATGAA	-	s3
10	43617416	T	C	s3
10	89692904	C	G	s3
10	89692904	C	T	s3
10	89692905	G	A	s3
10	89692993	G	T	s3
10	89711899	C	T	s3
10	89711900	G	A	s4
10	89717672	C	T	s4
10	89717675	C	T	s4
13	48953760	C	T	s4
10	89717775	A	-	s4
10	89720852	C	T	s4
10	123247516	T	C	s4
10	123247577	A	T	s4
10	123256060	A	T	s4
10	123256215	T	C	s4
10	123256219	C	T	s4
10	123258034	A	C	s4
10	123258034	A	T	s4
10	123258036	T	G	s4
10	123258042	T	C	s4
10	123258070	C	A	s4
10	123258070	C	G	s4
10	123258070	C	T	s4
10	123258076	C	A	s4
10	123258076	C	G	s4
10	123258076	C	T	s4
10	123274777	A	G	s4
10	123274794	T	C	s4
10	123274803	G	C	s4
10	123278324	G	C	s4
10	123279503	T	C	s4
10	123279562	C	G	s4
10	123279674	G	C	s4
10	123279677	G	C	s4
11	533873	C	A	s4
11	533873	C	G	s4
11	533873	CT	AC	s4
11	533873	CT	TC	s4
11	533874	T	A	s4
11	533874	T	C	s4
11	533874	T	G	s4
11	533875	G	T	s4
11	534285	C	A	s4
11	534286	C	A	s4
11	534286	C	G	s4
11	534286	C	T	s4
11	534288	C	A	s4
11	534288	C	T	s4
11	534289	C	A	s4
11	534289	C	G	s4
11	32417909	-	ACCGTACA	s4
11	119148891	T	C	s4
11	119148930	T	C	s4
12	25378561	G	A	s4
12	25378562	C	G	s4
12	25378562	C	T	s4
12	25378647	T	A	s4
12	25378647	T	G	s4
12	25380275	T	A	s4
12	25380275	T	G	s4
12	25380276	T	A	s4
12	25380276	T	C	s4
12	25380276	T	G	s4
12	25380277	G	C	s4
12	25380277	G	T	s4
12	25380283	C	T	s4
12	25398255	G	T	s4
12	25398262	C	A	s4
12	25398262	C	G	s4
12	25398281	C	A	s4
12	25398281	C	G	s4
12	25398281	C	T	s4
12	25398282	C	A	s4
12	25398282	C	G	s4
12	25398282	C	T	s4
12	25398284	C	A	s4
13	48955550	C	T	s4
12	25398284	C	G	s4
12	25398284	C	T	s4
12	25398285	C	A	s4
12	25398285	C	G	s4
12	25398285	C	T	s4
12	56481857	C	A	s4
12	56481922	G	A	s4
12	56490980	A	G	s4
12	58145430	C	T	s4
13	28592620	T	C	s4
13	28592621	A	G	s4
13	28592629	T	C	s4
13	28592637	G	C	s4
13	28592637	GAT	-	s4
13	28592639	T	G	s4
13	28592640	A	C	s4
13	28592640	A	T	s4
13	28592640	ATC	-	s4
13	28592641	T	A	s4
13	49027168	C	T	s4
13	49037877	G	T	s4
13	28592641	T	G	s4
13	28592641	TC	AA	s4
13	28592642	C	A	s4
13	28592642	C	G	s4
13	28592642	C	T	s4
13	28601359	A	C	s4
13	28601359	A	T	s4
13	28601373	T	A	s4
13	28602340	G	C	s4
13	28602340	G	T	s4
13	28602342	T	C	s4
13	28602416	T	C	s4
13	28608111	C	A	s4
13	28608341	T	C	s4
13	48919244	G	T	s4
13	48923148	T	A	s4
13	48941648	C	T	s4
13	48942685	C	T	s4
13	49039164	G	T	s4
14	105243048	G	T	s4
14	105246551	C	T	s4
15	28505962	CAGGTCAGGACCGTT	-	s4
15	28505975	A	G	s4
15	28517518	G	C	s4
15	66727441	T	C	s4
15	66727451	A	C	s4
15	66727453	A	G	s4
15	66727455	G	C	s4
15	66727455	G	T	s4
15	66727483	G	A	s4
15	66729088	T	C	s4
15	66729100	T	A	s4
15	66729124	T	A	s4
15	66729124	T	G	s4
15	66729148	A	C	s4
15	66729152	G	C	s4
15	66729152	G	T	s4
15	66729153	T	A	s4
15	66729154	G	C	s4
15	66729162	C	T	s4
15	66729163	C	T	s4
15	66729175	G	A	s4
15	66729177	T	C	s4
15	66774131	G	A	s4
15	66774156	T	A	s4
15	66774168	T	C	s4
15	66777424	C	T	s4
15	66782915	A	C	s4
15	90631837	C	G	s4
15	90631838	C	A	s4
15	90631838	C	T	s4
21	36252876	C	A	s4
15	90631934	C	A	s4
15	90631934	C	T	s4
15	90631935	G	A	s4
16	81946260	C	T	s4
16	81962183	A	C	s4
16	81962183	A	T	s4
17	7577022	G	A	s4
17	7577120	C	T	s4
17	7577121	G	A	s4
17	7577535	C	G	s4
17	7577536	T	A	s4
17	7577538	C	T	s4
17	7577539	G	A	s4
17	7577548	C	T	s4
17	7578190	T	C	s4
17	7578406	C	T	s4
17	7578412	A	C	s4
17	7578412	A	G	s4
17	37868205	G	A	s4
17	37868205	G	C	s4
17	37868208	C	A	s4
17	37868208	C	T	s4
17	37880219	TTGAGGGAAAACACA	-	s4
17	37880220	T	C	s4
17	37880261	G	C	s4
17	37880261	G	T	s4
17	37880997	G	A	s4
17	37880997	-	TGT	s4
17	37881000	G	C	s4
17	37881000	G	T	s4
17	37881003	-	GGCTCCCCA	s4
17	37881025	T	C	s4
17	37881332	G	A	s4
17	37881616	C	T	s4
18	48591826	A	C	s4
18	48591888	G	A	s4
18	48591888	G	C	s4
18	48591902	C	A	s4
18	48591918	C	A	s4
18	48591918	C	T	s4
18	48591919	G	A	s4
18	48604787	G	T	s4
19	1207021	C	T	s4
19	1220415	C	T	s4
19	1220487	G	A	s4
19	1220488	A	T	s4
19	1220489	C	A	s4
19	1220489	C	G	s4
19	1220494	G	T	s4
19	1220502	G	A	s4
19	1220502	G	T	s4
19	1221319	C	T	s4
19	1223059	G	A	s4
19	3118942	A	C	s4
19	3118942	A	T	s4
19	4110581	T	C	s4
19	4110584	A	T	s4
19	4117541	T	G	s4
19	4117584	G	A	s4
19	4117617	C	T	s4
19	17945696	C	T	s4
19	17945969	C	T	s4
19	17948009	G	A	s4
19	17949138	C	A	s4
19	17949138	C	G	s4
19	17954215	G	T	s4
19	17954634	A	G	s4
19	18278061	A	G	s4
19	40741870	C	T	s4
19	40742220	T	C	s4
20	36031762	C	T	s4
20	57484420	C	T	s4
20	57484421	G	A	s4
20	57484421	G	T	s4
20	57484596	A	T	s4
21	36231783	G	A	s4
21	36252876	C	G	s4
21	36252877	C	T	s4
21	36252878	T	C	s4
21	44514777	T	C	s4
21	44514777	T	G	s4
21	44524456	G	A	s4
21	44524456	G	T	s4
X	1314966	A	C	s4
X	47426121	C	G	s4
X	100611164	C	G	s4
X	100611165	A	T	s4
13	48955538	C	T	s4
