sample	gene	cna	cancer	internal_id	predicted_in_tumors	gene_role	known_in_tumors	driver	driver_statement	predicted_match	known_match
TCGA-AG-3999	APC	DEL	COREAD	3	LUAD;STAD	LoF	COREAD;PA;DEST;HB;G;CNS	known	known in: COREAD;PA;DEST;HB;G;CNS		known_match
TCGA-AG-3999	AURKA	AMP	COREAD	9		ambiguous	PRAD;CANCER	known	known in: PRAD		
TCGA-AG-3999	TP53	DEL	COREAD	139	S	LoF	BCL;THYM	known	known in: BCL;THYM		
TCGA-AA-A00D	TP53	DEL	COREAD	164	S	LoF	BCL;THYM	known	known in: BCL;THYM		
TCGA-AG-3999	ADAM29	DEL	COREAD	0		ambiguous			predicted passenger		
TCGA-AG-3999	ADAMTS4	AMP	COREAD	1		ambiguous			predicted passenger		
TCGA-AG-3999	APCDD1L	AMP	COREAD	2		ambiguous			predicted passenger		
TCGA-AG-3999	APOA2	AMP	COREAD	4		ambiguous			predicted passenger		
TCGA-AG-3999	ARHGAP30	AMP	COREAD	5		ambiguous			predicted passenger		
TCGA-AG-3999	ARHGEF10	DEL	COREAD	6		ambiguous			predicted passenger		
TCGA-AG-3999	ATF6	AMP	COREAD	7		ambiguous			predicted passenger		
TCGA-AG-3999	ATP5E	AMP	COREAD	8		ambiguous			predicted passenger		
TCGA-AG-3999	B4GALT3	AMP	COREAD	10		ambiguous			predicted passenger		
TCGA-AG-3999	BCAT1	AMP	COREAD	11		ambiguous			predicted passenger		
TCGA-AG-3999	BHLHE41	AMP	COREAD	12		LoF			predicted passenger		
TCGA-AG-3999	BMP7	AMP	COREAD	13		ambiguous			predicted passenger		
TCGA-AG-3999	C12orf77	AMP	COREAD	14		ambiguous			predicted passenger		
TCGA-AG-3999	C1orf110	AMP	COREAD	15		ambiguous			predicted passenger		
TCGA-AG-3999	C1orf111	AMP	COREAD	16		ambiguous			predicted passenger		
TCGA-AG-3999	C1orf192	AMP	COREAD	17		ambiguous			predicted passenger		
TCGA-AG-3999	C1orf226	AMP	COREAD	18		ambiguous			predicted passenger		
TCGA-AG-3999	C20orf197	AMP	COREAD	19		ambiguous			predicted passenger		
TCGA-AG-3999	C20orf43	AMP	COREAD	20		ambiguous			predicted passenger		
TCGA-AG-3999	C20orf85	AMP	COREAD	21		ambiguous			predicted passenger		
TCGA-AG-3999	C8orf42	DEL	COREAD	22		ambiguous			predicted passenger		
TCGA-AG-3999	CASC1	AMP	COREAD	23		ambiguous			predicted passenger		
TCGA-AG-3999	CASS4	AMP	COREAD	24		ambiguous			predicted passenger		
TCGA-AG-3999	CBLN4	AMP	COREAD	25		ambiguous			predicted passenger		
TCGA-AG-3999	CC2D2A	DEL	COREAD	26		ambiguous			predicted passenger		
TCGA-AG-3999	CDH26	AMP	COREAD	27		ambiguous			predicted passenger		
TCGA-AG-3999	CLN8	DEL	COREAD	28		ambiguous			predicted passenger		
TCGA-AG-3999	CSMD1	DEL	COREAD	29		ambiguous			predicted passenger		
TCGA-AG-3999	CSTF1	AMP	COREAD	30		ambiguous			predicted passenger		
TCGA-AG-3999	CTCFL	AMP	COREAD	31		ambiguous			predicted passenger		
TCGA-AG-3999	CTSZ	AMP	COREAD	32		ambiguous			predicted passenger		
TCGA-AG-3999	DDR2	AMP	COREAD	33		Act			predicted passenger		
TCGA-AG-3999	DEDD	AMP	COREAD	34		ambiguous			predicted passenger		
TCGA-AG-3999	DIDO1	DEL	COREAD	35		LoF			predicted passenger		
TCGA-AG-3999	DISP2	DEL	COREAD	36		ambiguous			predicted passenger		
TCGA-AG-3999	DLGAP2	DEL	COREAD	37		ambiguous			predicted passenger		
TCGA-AG-3999	DUSP12	AMP	COREAD	38		ambiguous			predicted passenger		
TCGA-AG-3999	EDN3	AMP	COREAD	39		ambiguous			predicted passenger		
TCGA-AG-3999	ERICH1	DEL	COREAD	40		ambiguous			predicted passenger		
TCGA-AG-3999	F11R	AMP	COREAD	41		ambiguous			predicted passenger		
TCGA-AG-3999	FAM209A	AMP	COREAD	42		ambiguous			predicted passenger		
TCGA-AG-3999	FAM209B	AMP	COREAD	43		ambiguous			predicted passenger		
TCGA-AG-3999	FAM210B	AMP	COREAD	44		ambiguous			predicted passenger		
TCGA-AG-3999	FAM217B	AMP	COREAD	45		ambiguous			predicted passenger		
TCGA-AG-3999	FBXO25	DEL	COREAD	46		ambiguous			predicted passenger		
TCGA-AG-3999	FCER1G	AMP	COREAD	47		ambiguous			predicted passenger		
TCGA-AG-3999	FCGR2A	AMP	COREAD	48		ambiguous			predicted passenger		
TCGA-AG-3999	FCGR2B	AMP	COREAD	49		Act			predicted passenger		
TCGA-AG-3999	FCGR2C	AMP	COREAD	50		ambiguous			predicted passenger		
TCGA-AG-3999	FCGR3A	AMP	COREAD	51		ambiguous			predicted passenger		
TCGA-AG-3999	FCGR3B	AMP	COREAD	52		ambiguous			predicted passenger		
TCGA-AG-3999	FCRLA	AMP	COREAD	53		ambiguous			predicted passenger		
TCGA-AG-3999	FCRLB	AMP	COREAD	54		ambiguous			predicted passenger		
TCGA-AG-3999	GCNT7	AMP	COREAD	55		ambiguous			predicted passenger		
TCGA-AG-3999	GNAS	AMP	COREAD	56	S	Act			predicted passenger		
TCGA-AG-3999	GNAS-AS1	AMP	COREAD	57		ambiguous			predicted passenger		
TCGA-AG-3999	GRIA3	DEL	COREAD	58		ambiguous			predicted passenger		
TCGA-AG-3999	hsa-mir-296	AMP	COREAD	59		ambiguous			predicted passenger		
TCGA-AG-3999	hsa-mir-298	AMP	COREAD	60		ambiguous			predicted passenger		
TCGA-AG-3999	hsa-mir-4302	AMP	COREAD	61		ambiguous			predicted passenger		
TCGA-AG-3999	hsa-mir-4325	AMP	COREAD	62		ambiguous			predicted passenger		
TCGA-AG-3999	hsa-mir-556	AMP	COREAD	63		ambiguous			predicted passenger		
TCGA-AG-3999	hsa-mir-596	DEL	COREAD	64		ambiguous			predicted passenger		
TCGA-AG-3999	hsa-mir-646	AMP	COREAD	65		ambiguous			predicted passenger		
TCGA-AG-3999	HSD17B7	AMP	COREAD	66		LoF			predicted passenger		
TCGA-AG-3999	HSPA6	AMP	COREAD	67		ambiguous			predicted passenger		
TCGA-AG-3999	HSPA7	AMP	COREAD	68		ambiguous			predicted passenger		
TCGA-AG-3999	IFLTD1	AMP	COREAD	69		ambiguous			predicted passenger		
TCGA-AG-3999	ISLR	DEL	COREAD	70		ambiguous			predicted passenger		
TCGA-AG-3999	ITLN1	AMP	COREAD	71		ambiguous			predicted passenger		
TCGA-AG-3999	ITLN2	AMP	COREAD	72		ambiguous			predicted passenger		
TCGA-AG-3999	JAKMIP1	DEL	COREAD	73		ambiguous			predicted passenger		
TCGA-AG-3999	KBTBD11	DEL	COREAD	74		ambiguous			predicted passenger		
TCGA-AG-3999	KIAA0100	DEL	COREAD	75		ambiguous			predicted passenger		
TCGA-AG-3999	KLHDC9	AMP	COREAD	76		ambiguous			predicted passenger		
TCGA-AG-3999	LOC100506451	AMP	COREAD	77		ambiguous			predicted passenger		
TCGA-AG-3999	LOC149773	AMP	COREAD	78		ambiguous			predicted passenger		
TCGA-AG-3999	LOC284757	AMP	COREAD	79		ambiguous			predicted passenger		
TCGA-AG-3999	LOC286083	DEL	COREAD	80		ambiguous			predicted passenger		
TCGA-AG-3999	LRMP	AMP	COREAD	81		ambiguous			predicted passenger		
TCGA-AG-3999	LYRM5	AMP	COREAD	82		ambiguous			predicted passenger		
TCGA-AG-3999	MC3R	AMP	COREAD	83		ambiguous			predicted passenger		
TCGA-AG-3999	MGA	DEL	COREAD	84	COREAD;LUAD;OV	LoF			predicted passenger	known_match	
TCGA-AG-3999	MIR296	AMP	COREAD	85		ambiguous			predicted passenger		
TCGA-AG-3999	MIR298	AMP	COREAD	86		ambiguous			predicted passenger		
TCGA-AG-3999	MIR4302	AMP	COREAD	87		ambiguous			predicted passenger		
TCGA-AG-3999	MIR4325	AMP	COREAD	88		ambiguous			predicted passenger		
TCGA-AG-3999	MIR4532	AMP	COREAD	89		ambiguous			predicted passenger		
TCGA-AG-3999	MIR4654	AMP	COREAD	90		ambiguous			predicted passenger		
TCGA-AG-3999	MIR5095	AMP	COREAD	91		ambiguous			predicted passenger		
TCGA-AG-3999	MIR556	AMP	COREAD	92		ambiguous			predicted passenger		
TCGA-AG-3999	MIR596	DEL	COREAD	93		ambiguous			predicted passenger		
TCGA-AG-3999	MPZ	AMP	COREAD	94		ambiguous			predicted passenger		
TCGA-AG-3999	MTRNR2L3	AMP	COREAD	95		ambiguous			predicted passenger		
TCGA-AG-3999	MYOM2	DEL	COREAD	96		ambiguous			predicted passenger		
TCGA-AG-3999	NDUFS2	AMP	COREAD	97		ambiguous			predicted passenger		
TCGA-AG-3999	NIT1	AMP	COREAD	98		ambiguous			predicted passenger		
TCGA-AG-3999	NOL4	DEL	COREAD	99		ambiguous			predicted passenger		
TCGA-AG-3999	NOS1AP	AMP	COREAD	100		ambiguous			predicted passenger		
TCGA-AG-3999	NPAS3	DEL	COREAD	101		ambiguous			predicted passenger		
TCGA-AG-3999	NPEPL1	AMP	COREAD	102		ambiguous			predicted passenger		
TCGA-AG-3999	NR1I3	AMP	COREAD	103		ambiguous			predicted passenger		
TCGA-AG-3999	OLFML2B	AMP	COREAD	104		ambiguous			predicted passenger		
TCGA-AG-3999	OR4F21	DEL	COREAD	105		ambiguous			predicted passenger		
TCGA-AG-3999	PCK1	AMP	COREAD	106		ambiguous			predicted passenger		
TCGA-AG-3999	PCP4L1	AMP	COREAD	107		ambiguous			predicted passenger		
TCGA-AG-3999	PFDN2	AMP	COREAD	108		ambiguous			predicted passenger		
TCGA-AG-3999	PIEZO2	DEL	COREAD	109		ambiguous			predicted passenger		
TCGA-AG-3999	PLEKHA2	DEL	COREAD	110		ambiguous			predicted passenger		
TCGA-AG-3999	PMEPA1	AMP	COREAD	111		ambiguous			predicted passenger		
TCGA-AG-3999	PPOX	AMP	COREAD	112		ambiguous			predicted passenger		
TCGA-AG-3999	PPP1R3D	AMP	COREAD	113		ambiguous			predicted passenger		
TCGA-AG-3999	PPP4R1L	AMP	COREAD	114		ambiguous			predicted passenger		
TCGA-AG-3999	PTPRU	DEL	COREAD	115		Act			predicted passenger		
TCGA-AG-3999	PVRL4	AMP	COREAD	116		ambiguous			predicted passenger		
TCGA-AG-3999	RAB22A	AMP	COREAD	117		ambiguous			predicted passenger		
TCGA-AG-3999	RAE1	AMP	COREAD	118		ambiguous			predicted passenger		
TCGA-AG-3999	RASSF8	AMP	COREAD	119		LoF			predicted passenger		
TCGA-AG-3999	RBM38	AMP	COREAD	120		ambiguous			predicted passenger		
TCGA-AG-3999	RGS4	AMP	COREAD	121		ambiguous			predicted passenger		
TCGA-AG-3999	RPL23AP53	DEL	COREAD	122		ambiguous			predicted passenger		
TCGA-AG-3999	RPL31P11	AMP	COREAD	123		ambiguous			predicted passenger		
TCGA-AG-3999	SAT2	DEL	COREAD	124		ambiguous			predicted passenger		
TCGA-AG-3999	SDHC	AMP	COREAD	125		LoF			predicted passenger		
TCGA-AG-3999	SH2D1B	AMP	COREAD	126		ambiguous			predicted passenger		
TCGA-AG-3999	SLITRK4	AMP	COREAD	127		ambiguous			predicted passenger		
TCGA-AG-3999	SLMO2	AMP	COREAD	128		ambiguous			predicted passenger		
TCGA-AG-3999	SLMO2-ATP5E	AMP	COREAD	129		ambiguous			predicted passenger		
TCGA-AG-3999	SPANXN2	AMP	COREAD	130		ambiguous			predicted passenger		
TCGA-AG-3999	SPO11	AMP	COREAD	131		ambiguous			predicted passenger		
TCGA-AG-3999	SSPN	AMP	COREAD	132		ambiguous			predicted passenger		
TCGA-AG-3999	STX16	AMP	COREAD	133		ambiguous			predicted passenger		
TCGA-AG-3999	STX16-NPEPL1	AMP	COREAD	134		ambiguous			predicted passenger		
TCGA-AG-3999	SYCP2	AMP	COREAD	135		ambiguous			predicted passenger		
TCGA-AG-3999	TFAP2C	AMP	COREAD	136		ambiguous			predicted passenger		
TCGA-AG-3999	TH1L	AMP	COREAD	137		ambiguous			predicted passenger		
TCGA-AG-3999	TOMM40L	AMP	COREAD	138		ambiguous			predicted passenger		
TCGA-AG-3999	TRIM41	DEL	COREAD	140		ambiguous			predicted passenger		
TCGA-AG-3999	TSTD1	AMP	COREAD	141		ambiguous			predicted passenger		
TCGA-AG-3999	TTR	DEL	COREAD	142		ambiguous			predicted passenger		
TCGA-AG-3999	TUBB1	AMP	COREAD	143		ambiguous			predicted passenger		
TCGA-AG-3999	UAP1	AMP	COREAD	144		ambiguous			predicted passenger		
TCGA-AG-3999	UFC1	AMP	COREAD	145		ambiguous			predicted passenger		
TCGA-AG-3999	UHMK1	AMP	COREAD	146		ambiguous			predicted passenger		
TCGA-AG-3999	USF1	AMP	COREAD	147		ambiguous			predicted passenger		
TCGA-AG-3999	USP21	AMP	COREAD	148		ambiguous			predicted passenger		
TCGA-AG-3999	VAPB	AMP	COREAD	149		ambiguous			predicted passenger		
TCGA-AG-3999	ZBP1	AMP	COREAD	150		ambiguous			predicted passenger		
TCGA-AG-3999	ZNF596	DEL	COREAD	151		ambiguous			predicted passenger		
TCGA-AG-3999	ZNF831	AMP	COREAD	152		ambiguous			predicted passenger		
TCGA-AA-A00D	ARHGAP28	DEL	COREAD	153		ambiguous			predicted passenger		
TCGA-AA-A00D	ATP9B	DEL	COREAD	154		ambiguous			predicted passenger		
TCGA-AA-A00D	DCC	DEL	COREAD	155	HNSC	LoF			predicted passenger		
TCGA-AA-A00D	L3MBTL4	DEL	COREAD	156		ambiguous			predicted passenger		
TCGA-AA-A00D	LAMA1	DEL	COREAD	157		ambiguous			predicted passenger		
TCGA-AA-A00D	LOC400643	DEL	COREAD	158		ambiguous			predicted passenger		
TCGA-AA-A00D	LRRC30	DEL	COREAD	159		ambiguous			predicted passenger		
TCGA-AA-A00D	NEIL1	DEL	COREAD	160		ambiguous			predicted passenger		
TCGA-AA-A00D	NLRP1	DEL	COREAD	161		ambiguous			predicted passenger		
TCGA-AA-A00D	PLA2G4F	DEL	COREAD	162		ambiguous			predicted passenger		
TCGA-AA-A00D	PTPRM	DEL	COREAD	163		ambiguous			predicted passenger		
