SAMPLE	CANCER_TYPE	SAMPLE_ALTERATION	ALTERATION_MATCH	TUMOR_MATCH	DRUG	BIOMARKER	EFFECT	BIOMARKER_IDX	RESISTANCE_LIST	RESISTANCE_TYPE	TESTED_TUMOR	EVIDENCE	SOURCE
TCGA-49-4494-01A-01D-1265-08	NSCLC	EGFR MUT (T790M)	complete	1	EGFR inhibitor 3rd gens	EGFR (T790M)	Responsive	148			L	Early trials	ASCO 2014 (abstr 8009);ENA 2014 (abstr 10LBA);ENA 2014 (abstr 9LBA);ASCO 2015 (abstr 8001)
TCGA-49-4494-01A-01D-1265-08	NSCLC	EGFR MUT (L858R), EGFR MUT (T790M)	only gene	1	Erlotinib (EGFR inhibitor 1st gen)	EGFR amplification	No Responsive	149			L	Early trials	ASCO2015(abstre19028)
TCGA-49-4494-01A-01D-1265-08	NSCLC	EGFR MUT (L858R)	complete	1	Afatinib + Cetuximab (ERBB2 inhibitor&EGFR inhibitor 2nd gen + EGFR mAb inhibitor)	EGFR (L858R,L861Q,G719A,G719S,G719C,G719D,L747S,S768I,L861P,L861R)	Responsive	150			L	Early trials	ESMO 2012 (abstr 1289)
TCGA-49-4494-01A-01D-1265-08	NSCLC	EGFR MUT (L858R), EGFR MUT (T790M)	only alteration type	1	Afatinib + Cetuximab (ERBB2 inhibitor&EGFR inhibitor 2nd gen + EGFR mAb inhibitor)	EGFR inframe insertion (729-761)	Responsive	151			L	Early trials	ESMO 2012 (abstr 1289)
TCGA-49-4494-01A-01D-1265-08	NSCLC	EGFR MUT (L858R)	complete	1	HSP90 inhibitors	EGFR (L858R,L861Q,G719A,G719S,G719C,G719D,L747S,S768I,L861P,L861R)	Responsive	152			L	Early trials	ESMO 2012 (abstr 4380)
TCGA-49-4494-01A-01D-1265-08	NSCLC	EGFR MUT (T790M)	complete	1	HSP90 inhibitors	EGFR (T790M)	Responsive	153			L	Early trials	ESMO 2012 (abstr 4380)
TCGA-49-4494-01A-01D-1265-08	NSCLC	EGFR MUT (L858R), EGFR MUT (T790M)	only alteration type	1	HSP90 inhibitors	EGFR inframe insertion (729-761)	Responsive	154			L	Early trials	ESMO 2012 (abstr 4380)
TCGA-49-4494-01A-01D-1265-08	NSCLC	EGFR MUT (L858R)	only alteration type	1	Erlotinib (EGFR inhibitor 1st gen)	EGFR inframe deletion (729-761)	Responsive	155	164	Resistant	NSCLC	FDA guidelines	FDA
TCGA-49-4494-01A-01D-1265-08	NSCLC	EGFR MUT (L858R)	complete	1	Erlotinib (EGFR inhibitor 1st gen)	EGFR (L858R,L861Q,G719A,G719S,G719C,G719D,L747S,S768I,L861P,L861Q,L861R)	Responsive	156	164	Resistant	NSCLC	FDA guidelines	FDA
TCGA-49-4494-01A-01D-1265-08	NSCLC	EGFR MUT (L858R)	only alteration type	1	Erlotinib (EGFR inhibitor 1st gen)	EGFR (L861Q,G719A,G719S,G719C,G719D,L747S,S768I,L861P,L861Q,L861R)	Responsive	157	164	Resistant	NSCLC	NCCN guidelines	FDA
TCGA-49-4494-01A-01D-1265-08	NSCLC	EGFR MUT (L858R)	only alteration type	1	Gefitinib (EGFR inhibitor 1st gen)	EGFR inframe deletion (729-761)	Responsive	158	810	Resistant	NSCLC	FDA guidelines	FDA
TCGA-49-4494-01A-01D-1265-08	NSCLC	EGFR MUT (L858R)	complete	1	Gefitinib (EGFR inhibitor 1st gen)	EGFR (L858R,L861Q,G719A,G719S,G719C,G719D,L747S,S768I,L861P,L861Q,L861R)	Responsive	159	810	Resistant	NSCLC	FDA guidelines	FDA
TCGA-49-4494-01A-01D-1265-08	NSCLC	EGFR MUT (L858R)	only alteration type	1	Gefitinib (EGFR inhibitor 1st gen)	EGFR (L861Q,G719A,G719S,G719C,G719D,L747S,S768I,L861P,L861Q,L861R)	Responsive	160	810	Resistant	NSCLC	NCCN guidelines	FDA
TCGA-49-4494-01A-01D-1265-08	NSCLC	EGFR MUT (L858R)	only alteration type	1	Afatinib (ERBB2 inhibitor&EGFR inhibitor 2nd gen)	EGFR inframe deletion (729-761)	Responsive	161	165	Resistant	NSCLC	FDA guidelines	FDA
TCGA-49-4494-01A-01D-1265-08	NSCLC	EGFR MUT (L858R)	complete	1	Afatinib (ERBB2 inhibitor&EGFR inhibitor 2nd gen)	EGFR (L858R,L861Q,G719A,G719S,G719C,G719D,L747S,S768I,L861P,L861Q,L861R)	Responsive	162	165	Resistant	NSCLC	FDA guidelines	FDA
TCGA-49-4494-01A-01D-1265-08	NSCLC	EGFR MUT (L858R)	only alteration type	1	Afatinib (ERBB2 inhibitor&EGFR inhibitor 2nd gen)	EGFR (L861Q,G719A,G719S,G719C,G719D,L747S,S768I,L861P,L861Q,L861R)	Responsive	163	165	Resistant	NSCLC	NCCN guidelines	FDA
TCGA-49-4494-01A-01D-1265-08	NSCLC	EGFR MUT (T790M)	complete	1	Erlotinib (EGFR inhibitor 1st gen)	EGFR (T790M)	Resistant	164			L	NCCN/CAP guidelines	NCCN
TCGA-49-4494-01A-01D-1265-08	NSCLC	EGFR MUT (T790M)	complete	1	Afatinib (ERBB2 inhibitor&EGFR inhibitor 2nd gen)	EGFR (T790M)	Resistant	165			L	NCCN/CAP guidelines	NCCN
TCGA-49-4494-01A-01D-1265-08	NSCLC	EGFR MUT (L858R), EGFR MUT (T790M)	only gene	0	EGFR inhibitor 1st gens	EGFR amplification	No Responsive	166			G	Early trials	PMID:16282176;PMID:16278407
TCGA-49-4494-01A-01D-1265-08	NSCLC	EGFR MUT (L858R), EGFR MUT (T790M)	only gene	0	EGFR inhibitor 2nd gens	EGFR amplification	No Responsive	167			G	Early trials	PMID:16282176;PMID:16278407
TCGA-49-4494-01A-01D-1265-08	NSCLC	EGFR MUT (L858R), EGFR MUT (T790M)	only gene	0	EGFR inhibitor 3rd gens	EGFR amplification	No Responsive	168			G	Early trials	PMID:16282176;PMID:16278407
TCGA-49-4494-01A-01D-1265-08	NSCLC	EGFR MUT (L858R)	only alteration type	0	Erlotinib (EGFR inhibitor 1st gen)	EGFR (A289V,R108K,G598V,T263P)	Responsive	169	164	Resistant	G	Pre-clinical	PMID:17177598
TCGA-49-4494-01A-01D-1265-08	NSCLC	EGFR MUT (L858R), EGFR MUT (T790M)	only gene	0	EGFR mAb inhibitors	EGFR amplification	Responsive	170			COREAD	Late trials	PMID:18794099;PMID:17664472
TCGA-49-4494-01A-01D-1265-08	NSCLC	EGFR MUT (L858R), EGFR MUT (T790M)	only alteration type	0	EGFR inhibitor 1st gens	EGFR inframe deletion (30-336)	No Responsive	171			G	Early trials	PMID:19204207
TCGA-49-4494-01A-01D-1265-08	NSCLC	EGFR MUT (L858R), EGFR MUT (T790M)	only alteration type	0	EGFR inhibitor 2nd gens	EGFR inframe deletion (30-336)	No Responsive	172			G	Early trials	PMID:19204207
TCGA-49-4494-01A-01D-1265-08	NSCLC	EGFR MUT (L858R), EGFR MUT (T790M)	only alteration type	0	EGFR inhibitor 3rd gens	EGFR inframe deletion (30-336)	No Responsive	173			G	Early trials	PMID:19204207
TCGA-49-4494-01A-01D-1265-08	NSCLC	EGFR MUT (L858R), EGFR MUT (T790M)	only alteration type	0	Gefitinib (EGFR inhibitor 1st gen)	EGFR inframe deletion (L747),inframe insertion (P753PS)	No Responsive	174			HNC	Case report	PMID:21274259
TCGA-49-4494-01A-01D-1265-08	NSCLC	EGFR MUT (L858R), EGFR MUT (T790M)	only alteration type	0	Gefitinib (EGFR inhibitor 1st gen)	EGFR (V843I)	No Responsive	175			HNC	Case report	PMID:21274259
TCGA-49-4494-01A-01D-1265-08	NSCLC	EGFR MUT (L858R), EGFR MUT (T790M)	only gene	0	Gefitinib (EGFR inhibitor 1st gen)	EGFR amplification	No Responsive	176			HNC	Early trials	PMID:21274259;PMID:22261807
TCGA-49-4494-01A-01D-1265-08	NSCLC	EGFR MUT (L858R), EGFR MUT (T790M)	only alteration type	1	EGFR inhibitor 1st gens	EGFR inframe insertion (762-823)	Resistant	177			L	Late trials	PMID:21764376;PMID:21764376
TCGA-49-4494-01A-01D-1265-08	NSCLC	EGFR MUT (L858R)	only alteration type	1	Erlotinib (EGFR inhibitor 1st gen)	EGFR inframe insertion (729-761)	Responsive	178	164	Resistant	L	Early trials	PMID:22190593
TCGA-49-4494-01A-01D-1265-08	NSCLC	EGFR MUT (L858R), EGFR MUT (T790M)	only alteration type	0	Panitumumab (EGFR mAb inhibitor)	EGFR (S492R)	Responsive	179			COREAD	Case report	PMID:22270724
TCGA-49-4494-01A-01D-1265-08	NSCLC	EGFR MUT (L858R), EGFR MUT (T790M)	only alteration type	0	Cetuximab (EGFR mAb inhibitor)	EGFR (S492R,G465R,R451C,K467T)	Resistant	180			COREAD	Case report	PMID:22270724;PMID:26059438;PMID:25623215;PMID:22270724
TCGA-49-4494-01A-01D-1265-08	NSCLC	EGFR MUT (L858R)	complete	1	EGFR TK inhibitors	EGFR (L858R,L861Q,G719A,G719S,G719C,G719D,L747S,S768I,L861P,L861R)	Responsive	181			L	Late trials	PMID:22753918
TCGA-49-4494-01A-01D-1265-08	NSCLC	EGFR MUT (L858R), EGFR MUT (T790M)	only alteration type	1	EGFR TK inhibitors	EGFR inframe insertion (729-761)	Responsive	182			L	Late trials	PMID:22753918
TCGA-49-4494-01A-01D-1265-08	NSCLC	EGFR MUT (L858R)	only alteration type	1	Afatinib (ERBB2 inhibitor&EGFR inhibitor 2nd gen)	EGFR inframe insertion (729-761)	Responsive	183	165	Resistant	L	Late trials	PMID:22753918;PMID:25589191
TCGA-49-4494-01A-01D-1265-08	NSCLC	EGFR MUT (L858R), EGFR MUT (T790M)	only alteration type	0	Lapatinib (ERBB2 inhibitor)	EGFR (E690K)	Responsive	184			ED	Case report	PMID:22885469
TCGA-49-4494-01A-01D-1265-08	NSCLC	EGFR MUT (L858R), EGFR MUT (T790M)	complete	1	MEK inhibitor (alone or in combination)s	EGFR (L858R,L861Q,G719A,G719S,G719C,G719D,L747S,S768I,L861P,L861R,T790M)	Responsive	185			L	Pre-clinical	PMID:23102728
TCGA-49-4494-01A-01D-1265-08	NSCLC	EGFR MUT (L858R), EGFR MUT (T790M)	only alteration type	1	MEK inhibitor (alone or in combination)s	EGFR inframe insertion (729-761)	Responsive	186			L	Pre-clinical	PMID:23102728
TCGA-49-4494-01A-01D-1265-08	NSCLC	EGFR MUT (L858R), EGFR MUT (T790M)	only alteration type	0	Cetuximab (EGFR mAb inhibitor)	EGFR (P546S)	Responsive	187			HNC	Case report	PMID:23578570
TCGA-49-4494-01A-01D-1265-08	NSCLC	EGFR MUT (L858R), EGFR MUT (T790M)	only alteration type	0	Cetuximab + Sirolimus (EGFR mAb inhibitor + MTOR inhibitor)	EGFR (P753S)	Responsive	188			HNC	Case report	PMID:24934779
TCGA-49-4494-01A-01D-1265-08	NSCLC	EGFR MUT (L858R)	only gene	0	Gefitinib (EGFR inhibitor 1st gen)	EGFR amplification	Responsive	189	810	Resistant	ED	Late trials	PMID:24950987
TCGA-49-4494-01A-01D-1265-08	NSCLC	EGFR MUT (T790M)	complete	1	Afatinib + Cetuximab (ERBB2 inhibitor&EGFR inhibitor 2nd gen + EGFR mAb inhibitor)	EGFR (T790M)	Responsive	190			L	Early trials	PMID:25074459
TCGA-49-4494-01A-01D-1265-08	NSCLC	EGFR MUT (L858R), EGFR MUT (T790M)	only alteration type	0	Cetuximab (EGFR mAb inhibitor)	EGFR (S464L,G465R,I491M)	Resistant	191			COREAD	Pre-clinical	PMID:25623215
TCGA-49-4494-01A-01D-1265-08	NSCLC	EGFR MUT (L858R), EGFR MUT (T790M)	only alteration type	1	EGFR inhibitor 3rd gens	EGFR (C797S)	Resistant	192			L	Early trials	PMID:25939061
TCGA-49-4494-01A-01D-1265-08	NSCLC	EGFR MUT (L858R), EGFR MUT (T790M)	only alteration type	0	novel EGFR mAb inhibitors	EGFR (S492R)	Responsive	193			COREAD	Early trials	PMID:25962717
TCGA-49-4494-01A-01D-1265-08	NSCLC	EGFR MUT (L858R), EGFR MUT (T790M)	only alteration type	0	Panitumumab (EGFR mAb inhibitor)	EGFR (G465R)	Resistant	194			COREAD	Case report	PMID:26059438
TCGA-49-4494-01A-01D-1265-08	NSCLC	LRP1B MUT* (R851P)	complete	0	Liposomal Doxorubicin (Chemotherapy)	LRP1B oncogenic mutation	Resistant	398			OV	Early trials	PMID:22896685
TCGA-49-4494-01A-01D-1265-08	NSCLC	LRP1B MUT* (R851P)	only gene	0	Liposomal Doxorubicin (Chemotherapy)	LRP1B deletion	Resistant	399			OV	Early trials	PMID:22896685
TCGA-49-4494-01A-01D-1265-08	NSCLC	NTRK1 MUT* (L644M)	only gene	1	Pan-TKR inhibitors	NTRK1 fusion	Responsive	508			CANCER	Early trials	AACR 2016 (abstr CT007), AACR 2016 (abstr CT008)
TCGA-49-4494-01A-01D-1265-08	NSCLC	NTRK1 MUT* (L644M)	only gene	1	Crizotinib (ALK inhibitor)	NTRK1 fusion	Responsive	509			LUAD	Case report	ASCO 2013 (abstr 8023)
TCGA-49-4494-01A-01D-1265-08	NSCLC	NTRK1 MUT* (L644M)	only gene	1	Pan-TK inhibitors	NTRK1 fusion	Responsive	510			LUAD	Pre-clinical	PMID:24162815
TCGA-49-4494-01A-01D-1265-08	NSCLC	NTRK1 MUT* (L644M)	only gene	0	Pan-TK inhibitors (Entrectinib,etc)	NTRK1 fusion	Responsive	511			COREAD	Case report	PMID:26546295
TCGA-49-4494-01A-01D-1265-08	NSCLC	NTRK1 MUT* (L644M)	only alteration type	0	Pan-TK inhibitors (Entrectinib,etc)	NTRK1 (G595R,G667C)	Resistant	512			COREAD	Case report	PMID:26546295
TCGA-49-4494-01A-01D-1265-08	NSCLC	EGFR MUT (L858R), EGFR MUT (T790M)	only alteration type	1	HSP90 inhibitors	EGFR inframe insertion (762-823)	Responsive	692			L	Case report	ASCO 2014 (abstr 8015)
TCGA-49-4494-01A-01D-1265-08	NSCLC	EGFR MUT (T790M)	complete	1	Osimertinib (EGFR inhibitor 3rd gen)	EGFR (T790M)	Responsive	693			NSCLC	FDA guidelines	FDA
TCGA-49-4494-01A-01D-1265-08	NSCLC	EGFR MUT (L858R), EGFR MUT (T790M)	only alteration type	1	Osimertinib (EGFR inhibitor 3rd gen)	EGFR inframe insertion (762-823)	Responsive	694			L	Pre-clinical	PMID:26515464
TCGA-49-4494-01A-01D-1265-08	NSCLC	EGFR MUT (T790M)	complete	1	Afatinib + Nimotuzumab (ERBB2 inhibitor&EGFR inhibitor 2nd gen + EGFR mAb inhibitor)	EGFR (T790M)	Responsive	695			L	Early trials	PMID:26667485
TCGA-49-4494-01A-01D-1265-08	NSCLC	EGFR MUT (L858R), EGFR MUT (T790M)	only alteration type	0	Rindopepimut (Vaccine)	EGFR inframe deletion (6-273)	Responsive	704			GB	Late trials	NCT01480479
TCGA-49-4494-01A-01D-1265-08	NSCLC	EGFR MUT (L858R)	only gene	1	Erlotinib (EGFR inhibitor 1st gen)	EGFR-RAD51 fusion	Responsive	752	164	Resistant	NSCLC	Case report	PMID:27102076
TCGA-49-4494-01A-01D-1265-08	NSCLC	EGFR MUT (L858R), EGFR MUT (T790M)	only alteration type	1	Osimertinib (EGFR inhibitor 3rd gen)	EGFR (L719Q)	Resistant	753			LUAD	Pre-clinical,Case report	PMID:25948633;PMID:27257132
TCGA-49-4494-01A-01D-1265-08	NSCLC	EGFR MUT (L858R), EGFR MUT (T790M)	only alteration type	1	EGFR inhibitor 1st gens	EGFR (D761Y)	Resistant	809			NSCLC	Case report	PMID:19680293
TCGA-49-4494-01A-01D-1265-08	NSCLC	EGFR MUT (T790M)	complete	1	EGFR inhibitor 1st gens	EGFR (T790M)	Resistant	810			NSCLC	Late trials	PMID:19680293
TCGA-49-4494-01A-01D-1265-08	NSCLC	EGFR MUT (T790M)	complete	1	EGFR inhibitor 2nd gens	EGFR (T790M)	Resistant	811			NSCLC	Late trials	PMID:22452896
TCGA-49-4494-01A-01D-1265-08	NSCLC	EGFR MUT (L858R), EGFR MUT (T790M)	only gene	0	Panitumumab (EGFR mAb inhibitor)	EGFR overexpression	Resistant	823			COREAD	FDA guidelines	FDA guidelines
TCGA-49-4494-01A-01D-1265-08	NSCLC	EGFR MUT (T790M)	complete	1	EGFR inhibitor 3rd gens (Rociletinib,HM61713,etc)	EGFR (T790M)	Responsive	824			NSCLC	Late trials	NCT02322281
TCGA-49-4494-01A-01D-1265-08	NSCLC	EGFR MUT (L858R), EGFR MUT (T790M)	only gene	0	Cetuximab (EGFR mAb inhibitor)	EGFR overexpression	Responsive	867			COREAD	FDA guidelines	FDA
TCGA-49-4494-01A-01D-1265-08	NSCLC	EGFR MUT (L858R)	complete	1	Osimertinib (EGFR inhibitor 3rd gen)	EGFR (L858R)	Responsive	868			L	Early trials	NCT02465060
TCGA-49-4494-01A-01D-1265-08	NSCLC	EGFR MUT (L858R), EGFR MUT (T790M)	only alteration type	1	Osimertinib (EGFR inhibitor 3rd gen)	EGFR inframe deletion (729-761)	Responsive	869			L	Early trials	NCT02465060
