{
    "is_public": true,
    "drivers_per_sample": 0,
    "date": "2016-06-17 09:55:17",
    "cancertype": "BLCA",
    "dataset": "input.tsv",
    "cancer_type": "BLCA",
    "analysed_mutations": 62,
    "prescription_complete": 4,
    "known": 0,
    "title": "Example 4",
    "share": [],
    "mutations_per_sample": 62.0,
    "user": "jordi.deu@upf.edu",
    "drivers": 0,
    "prescription_repurposing": 3,
    "predicted": 0,
    "samples": 1,
    "samples_without_drivers": 1,
    "id": "a13431e6a957"
}