CHR	POS	REF	ALT	SAMPLE	STRAND
10	24908654	C	A	TCGA-49-4494-01A-01D-1265-08	+
10	50916423	T	A	TCGA-49-4494-01A-01D-1265-08	+
10	5777379	G	A	TCGA-49-4494-01A-01D-1265-08	+
10	73056384	G	C	TCGA-49-4494-01A-01D-1265-08	+
10	93576936	G	T	TCGA-49-4494-01A-01D-1265-08	+
10	98797513	C	A	TCGA-49-4494-01A-01D-1265-08	+
1	103352528	C	A	TCGA-49-4494-01A-01D-1265-08	+
11	103029646	G	A	TCGA-49-4494-01A-01D-1265-08	+
11	1651199	AGGCTGTGGGGGCTGTGGCTCCGGCTGTGC	-	TCGA-49-4494-01A-01D-1265-08	+
11	17552759	C	A	TCGA-49-4494-01A-01D-1265-08	+
11	18503191	CC	AG	TCGA-49-4494-01A-01D-1265-08	+
11	19890506	A	T	TCGA-49-4494-01A-01D-1265-08	+
11	30033103	CC	AA	TCGA-49-4494-01A-01D-1265-08	+
11	36614627	G	T	TCGA-49-4494-01A-01D-1265-08	+
11	48146645	G	T	TCGA-49-4494-01A-01D-1265-08	+
11	55607017	C	A	TCGA-49-4494-01A-01D-1265-08	+
1	156849038	C	A	TCGA-49-4494-01A-01D-1265-08	+
11	58170034	C	A	TCGA-49-4494-01A-01D-1265-08	+
1	158226831	G	T	TCGA-49-4494-01A-01D-1265-08	+
11	59225059	T	A	TCGA-49-4494-01A-01D-1265-08	+
1	161049685	C	-	TCGA-49-4494-01A-01D-1265-08	+
11	62037700	G	T	TCGA-49-4494-01A-01D-1265-08	+
11	62373360	T	C	TCGA-49-4494-01A-01D-1265-08	+
11	65272262	C	T	TCGA-49-4494-01A-01D-1265-08	+
11	7059986	G	T	TCGA-49-4494-01A-01D-1265-08	+
1	177911130	C	T	TCGA-49-4494-01A-01D-1265-08	+
1	179820234	C	A	TCGA-49-4494-01A-01D-1265-08	+
1	181745281	C	A	TCGA-49-4494-01A-01D-1265-08	+
11	89088203	G	A	TCGA-49-4494-01A-01D-1265-08	+
1	197390454	G	T	TCGA-49-4494-01A-01D-1265-08	+
1	201120964	C	T	TCGA-49-4494-01A-01D-1265-08	+
1	204237400	C	T	TCGA-49-4494-01A-01D-1265-08	+
12	116413011	C	A	TCGA-49-4494-01A-01D-1265-08	+
12	118650764	C	A	TCGA-49-4494-01A-01D-1265-08	+
1	216051157	C	A	TCGA-49-4494-01A-01D-1265-08	+
1	216497577	C	A	TCGA-49-4494-01A-01D-1265-08	+
12	1741938	C	A	TCGA-49-4494-01A-01D-1265-08	+
12	22012531	T	C	TCGA-49-4494-01A-01D-1265-08	+
12	23818455	G	A	TCGA-49-4494-01A-01D-1265-08	+
1	226784558	C	G	TCGA-49-4494-01A-01D-1265-08	+
1	228565299	A	G	TCGA-49-4494-01A-01D-1265-08	+
1	231349585	G	A	TCGA-49-4494-01A-01D-1265-08	+
12	32735088	C	G	TCGA-49-4494-01A-01D-1265-08	+
1	233344406	T	A	TCGA-49-4494-01A-01D-1265-08	+
1	237813354	G	T	TCGA-49-4494-01A-01D-1265-08	+
1	240371509	C	A	TCGA-49-4494-01A-01D-1265-08	+
12	51319018	C	T	TCGA-49-4494-01A-01D-1265-08	+
12	53215788	C	A	TCGA-49-4494-01A-01D-1265-08	+
12	53607014	C	T	TCGA-49-4494-01A-01D-1265-08	+
12	86268247	G	T	TCGA-49-4494-01A-01D-1265-08	+
12	8976459	C	G	TCGA-49-4494-01A-01D-1265-08	+
1	2939237	C	A	TCGA-49-4494-01A-01D-1265-08	+
13	102375188	G	T	TCGA-49-4494-01A-01D-1265-08	+
13	33092138	C	G	TCGA-49-4494-01A-01D-1265-08	+
1	34286094	C	T	TCGA-49-4494-01A-01D-1265-08	+
13	72440283	C	T	TCGA-49-4494-01A-01D-1265-08	+
13	96515938	C	A	TCGA-49-4494-01A-01D-1265-08	+
1	40701712	G	A	TCGA-49-4494-01A-01D-1265-08	+
14	20296431	A	T	TCGA-49-4494-01A-01D-1265-08	+
14	20443788	G	T	TCGA-49-4494-01A-01D-1265-08	+
14	45373686	G	A	TCGA-49-4494-01A-01D-1265-08	+
14	52735015	G	T	TCGA-49-4494-01A-01D-1265-08	+
14	70712902	G	T	TCGA-49-4494-01A-01D-1265-08	+
14	70925692	C	A	TCGA-49-4494-01A-01D-1265-08	+
14	92074715	C	A	TCGA-49-4494-01A-01D-1265-08	+
14	93107608	C	A	TCGA-49-4494-01A-01D-1265-08	+
14	93686679	C	T	TCGA-49-4494-01A-01D-1265-08	+
15	101601410	A	T	TCGA-49-4494-01A-01D-1265-08	+
15	24921511	C	A	TCGA-49-4494-01A-01D-1265-08	+
15	27128544	G	T	TCGA-49-4494-01A-01D-1265-08	+
15	27765182	G	A	TCGA-49-4494-01A-01D-1265-08	+
15	28459224	C	A	TCGA-49-4494-01A-01D-1265-08	+
15	42042148	G	T	TCGA-49-4494-01A-01D-1265-08	+
15	50264909	A	T	TCGA-49-4494-01A-01D-1265-08	+
15	74559018	G	C	TCGA-49-4494-01A-01D-1265-08	+
15	85327613	G	A	TCGA-49-4494-01A-01D-1265-08	+
15	87217502	A	G	TCGA-49-4494-01A-01D-1265-08	+
15	91434895	G	A	TCGA-49-4494-01A-01D-1265-08	+
16	49671380	C	G	TCGA-49-4494-01A-01D-1265-08	+
16	61761098	C	A	TCGA-49-4494-01A-01D-1265-08	+
16	69148656	A	T	TCGA-49-4494-01A-01D-1265-08	+
16	69726307	G	T	TCGA-49-4494-01A-01D-1265-08	+
16	781625	C	A	TCGA-49-4494-01A-01D-1265-08	+
16	81410934	G	C	TCGA-49-4494-01A-01D-1265-08	+
16	89294225	G	T	TCGA-49-4494-01A-01D-1265-08	+
17	10355258	C	A	TCGA-49-4494-01A-01D-1265-08	+
17	11593391	G	T	TCGA-49-4494-01A-01D-1265-08	+
17	30611731	G	A	TCGA-49-4494-01A-01D-1265-08	+
17	34883509	C	A	TCGA-49-4494-01A-01D-1265-08	+
17	34964761	A	G	TCGA-49-4494-01A-01D-1265-08	+
17	3721736	G	C	TCGA-49-4494-01A-01D-1265-08	+
17	40720536	A	G	TCGA-49-4494-01A-01D-1265-08	+
17	64785039	GG	TT	TCGA-49-4494-01A-01D-1265-08	+
17	7330250	C	T	TCGA-49-4494-01A-01D-1265-08	+
17	73836332	G	A	TCGA-49-4494-01A-01D-1265-08	+
17	73887248	C	A	TCGA-49-4494-01A-01D-1265-08	+
1	79357333	G	A	TCGA-49-4494-01A-01D-1265-08	+
18	22902131	C	-	TCGA-49-4494-01A-01D-1265-08	+
18	44027602	C	A	TCGA-49-4494-01A-01D-1265-08	+
19	1046335	C	A	TCGA-49-4494-01A-01D-1265-08	+
19	14857057	G	A	TCGA-49-4494-01A-01D-1265-08	+
19	15918047	C	A	TCGA-49-4494-01A-01D-1265-08	+
19	17994525	C	T	TCGA-49-4494-01A-01D-1265-08	+
19	18121164	G	C	TCGA-49-4494-01A-01D-1265-08	+
19	18888001	A	T	TCGA-49-4494-01A-01D-1265-08	+
19	31025803	G	T	TCGA-49-4494-01A-01D-1265-08	+
19	3281249	C	T	TCGA-49-4494-01A-01D-1265-08	+
19	34706112	G	T	TCGA-49-4494-01A-01D-1265-08	+
19	36832235	C	G	TCGA-49-4494-01A-01D-1265-08	+
19	4298087	G	T	TCGA-49-4494-01A-01D-1265-08	+
19	43233410	C	T	TCGA-49-4494-01A-01D-1265-08	+
1	94342195	G	A	TCGA-49-4494-01A-01D-1265-08	+
19	45992753	C	T	TCGA-49-4494-01A-01D-1265-08	+
19	51628373	C	A	TCGA-49-4494-01A-01D-1265-08	+
19	51994930	C	T	TCGA-49-4494-01A-01D-1265-08	+
19	52876489	G	T	TCGA-49-4494-01A-01D-1265-08	+
19	53678823	C	A	TCGA-49-4494-01A-01D-1265-08	+
19	56160839	G	T	TCGA-49-4494-01A-01D-1265-08	+
19	56363727	G	T	TCGA-49-4494-01A-01D-1265-08	+
19	58439201	C	T	TCGA-49-4494-01A-01D-1265-08	+
19	9076674	G	T	TCGA-49-4494-01A-01D-1265-08	+
19	9077673	C	A	TCGA-49-4494-01A-01D-1265-08	+
19	9083941	G	T	TCGA-49-4494-01A-01D-1265-08	+
20	43438829	G	T	TCGA-49-4494-01A-01D-1265-08	+
20	52781004	G	T	TCGA-49-4494-01A-01D-1265-08	+
20	60575636	C	A	TCGA-49-4494-01A-01D-1265-08	+
21	19713778	G	T	TCGA-49-4494-01A-01D-1265-08	+
21	31311771	G	T	TCGA-49-4494-01A-01D-1265-08	+
2	131519874	G	C	TCGA-49-4494-01A-01D-1265-08	+
2	136566318	G	C	TCGA-49-4494-01A-01D-1265-08	+
2	141751656	C	G	TCGA-49-4494-01A-01D-1265-08	+
21	45993646	G	A	TCGA-49-4494-01A-01D-1265-08	+
2	148715893	C	A	TCGA-49-4494-01A-01D-1265-08	+
2	175624091	G	A	TCGA-49-4494-01A-01D-1265-08	+
2	178417000	G	C	TCGA-49-4494-01A-01D-1265-08	+
2	179650354	C	G	TCGA-49-4494-01A-01D-1265-08	+
2	203686132	C	T	TCGA-49-4494-01A-01D-1265-08	+
2	211459298	C	T	TCGA-49-4494-01A-01D-1265-08	+
22	17072423	G	T	TCGA-49-4494-01A-01D-1265-08	+
22	18301821	C	A	TCGA-49-4494-01A-01D-1265-08	+
2	219296603	G	A	TCGA-49-4494-01A-01D-1265-08	+
22	24964111	G	T	TCGA-49-4494-01A-01D-1265-08	+
22	26860631	C	A	TCGA-49-4494-01A-01D-1265-08	+
2	233785096	G	A	TCGA-49-4494-01A-01D-1265-08	+
22	37602771	C	A	TCGA-49-4494-01A-01D-1265-08	+
22	38822911	C	T	TCGA-49-4494-01A-01D-1265-08	+
22	51012810	C	T	TCGA-49-4494-01A-01D-1265-08	+
2	27844189	G	C	TCGA-49-4494-01A-01D-1265-08	+
2	30863299	G	C	TCGA-49-4494-01A-01D-1265-08	+
2	43801837	G	A	TCGA-49-4494-01A-01D-1265-08	+
2	44204416	C	A	TCGA-49-4494-01A-01D-1265-08	+
2	77746912	G	T	TCGA-49-4494-01A-01D-1265-08	+
2	85571154	C	A	TCGA-49-4494-01A-01D-1265-08	+
3	101047372	T	A	TCGA-49-4494-01A-01D-1265-08	+
3	122002643	C	T	TCGA-49-4494-01A-01D-1265-08	+
3	142548567	G	A	TCGA-49-4494-01A-01D-1265-08	+
3	151127077	C	A	TCGA-49-4494-01A-01D-1265-08	+
3	182897375	C	T	TCGA-49-4494-01A-01D-1265-08	+
3	197707307	C	T	TCGA-49-4494-01A-01D-1265-08	+
3	33586292	G	A	TCGA-49-4494-01A-01D-1265-08	+
3	48501913	G	A	TCGA-49-4494-01A-01D-1265-08	+
3	48685348	C	T	TCGA-49-4494-01A-01D-1265-08	+
3	52257313	T	G	TCGA-49-4494-01A-01D-1265-08	+
3	93624636	T	A	TCGA-49-4494-01A-01D-1265-08	+
3	96706352	G	T	TCGA-49-4494-01A-01D-1265-08	+
4	100340244	C	A	TCGA-49-4494-01A-01D-1265-08	+
4	170017740	C	G	TCGA-49-4494-01A-01D-1265-08	+
4	177608435	G	A	TCGA-49-4494-01A-01D-1265-08	+
4	65274940	C	A	TCGA-49-4494-01A-01D-1265-08	+
5	102522089	G	T	TCGA-49-4494-01A-01D-1265-08	+
5	131008460	A	G	TCGA-49-4494-01A-01D-1265-08	+
5	131663013	T	C	TCGA-49-4494-01A-01D-1265-08	+
5	140182645	G	A	TCGA-49-4494-01A-01D-1265-08	+
5	140503215	G	A	TCGA-49-4494-01A-01D-1265-08	+
5	140711965	T	A	TCGA-49-4494-01A-01D-1265-08	+
5	14693081	C	T	TCGA-49-4494-01A-01D-1265-08	+
5	154181956	C	G	TCGA-49-4494-01A-01D-1265-08	+
5	178392687	G	T	TCGA-49-4494-01A-01D-1265-08	+
5	54320167	C	-	TCGA-49-4494-01A-01D-1265-08	+
5	63256504	C	T	TCGA-49-4494-01A-01D-1265-08	+
5	64081315	G	T	TCGA-49-4494-01A-01D-1265-08	+
5	76028404	A	T	TCGA-49-4494-01A-01D-1265-08	+
6	13283719	C	T	TCGA-49-4494-01A-01D-1265-08	+
6	161071502	T	G	TCGA-49-4494-01A-01D-1265-08	+
6	17849677	G	T	TCGA-49-4494-01A-01D-1265-08	+
6	25921560	G	T	TCGA-49-4494-01A-01D-1265-08	+
6	28872311	C	A	TCGA-49-4494-01A-01D-1265-08	+
6	32370728	C	A	TCGA-49-4494-01A-01D-1265-08	+
6	32726670	T	G	TCGA-49-4494-01A-01D-1265-08	+
7	100086913	G	T	TCGA-49-4494-01A-01D-1265-08	+
7	100675478	G	C	TCGA-49-4494-01A-01D-1265-08	+
7	100677522	G	C	TCGA-49-4494-01A-01D-1265-08	+
7	103159823	G	T	TCGA-49-4494-01A-01D-1265-08	+
7	103205942	G	T	TCGA-49-4494-01A-01D-1265-08	+
7	103844634	T	C	TCGA-49-4494-01A-01D-1265-08	+
7	129909536	C	G	TCGA-49-4494-01A-01D-1265-08	+
7	143748258	C	-	TCGA-49-4494-01A-01D-1265-08	+
7	150164352	T	C	TCGA-49-4494-01A-01D-1265-08	+
7	151372540	A	T	TCGA-49-4494-01A-01D-1265-08	+
7	20778656	T	A	TCGA-49-4494-01A-01D-1265-08	+
7	34118587	G	A	TCGA-49-4494-01A-01D-1265-08	+
7	36478826	C	A	TCGA-49-4494-01A-01D-1265-08	+
7	43917045	G	A	TCGA-49-4494-01A-01D-1265-08	+
7	55249071	C	T	TCGA-49-4494-01A-01D-1265-08	+
7	55259515	T	G	TCGA-49-4494-01A-01D-1265-08	+
7	63982254	G	A	TCGA-49-4494-01A-01D-1265-08	+
7	72744332	G	T	TCGA-49-4494-01A-01D-1265-08	+
7	72952325	G	A	TCGA-49-4494-01A-01D-1265-08	+
7	7477083	C	T	TCGA-49-4494-01A-01D-1265-08	+
7	7477086	G	A	TCGA-49-4494-01A-01D-1265-08	+
7	87436744	C	T	TCGA-49-4494-01A-01D-1265-08	+
7	87780637	T	G	TCGA-49-4494-01A-01D-1265-08	+
7	88965549	G	T	TCGA-49-4494-01A-01D-1265-08	+
7	92979331	G	T	TCGA-49-4494-01A-01D-1265-08	+
8	141595310	C	G	TCGA-49-4494-01A-01D-1265-08	+
8	28600642	A	G	TCGA-49-4494-01A-01D-1265-08	+
8	2944669	C	G	TCGA-49-4494-01A-01D-1265-08	+
8	30703484	A	T	TCGA-49-4494-01A-01D-1265-08	+
8	3265422	G	T	TCGA-49-4494-01A-01D-1265-08	+
8	41791382	C	A	TCGA-49-4494-01A-01D-1265-08	+
8	73480430	G	T	TCGA-49-4494-01A-01D-1265-08	+
8	88885425	C	A	TCGA-49-4494-01A-01D-1265-08	+
8	97270732	T	A	TCGA-49-4494-01A-01D-1265-08	+
9	27561628	T	A	TCGA-49-4494-01A-01D-1265-08	+
9	34977191	C	A	TCGA-49-4494-01A-01D-1265-08	+
9	5185531	G	T	TCGA-49-4494-01A-01D-1265-08	+
X	101382384	G	T	TCGA-49-4494-01A-01D-1265-08	+
X	102979534	G	T	TCGA-49-4494-01A-01D-1265-08	+
X	125299021	G	T	TCGA-49-4494-01A-01D-1265-08	+
X	125299047	G	T	TCGA-49-4494-01A-01D-1265-08	+
X	151935379	C	-	TCGA-49-4494-01A-01D-1265-08	+
X	18748374	C	A	TCGA-49-4494-01A-01D-1265-08	+
X	35993959	G	T	TCGA-49-4494-01A-01D-1265-08	+
X	47034492	G	T	TCGA-49-4494-01A-01D-1265-08	+
X	53114870	A	C	TCGA-49-4494-01A-01D-1265-08	+
X	73064626	G	T	TCGA-49-4494-01A-01D-1265-08	+
